…
readr::read_csv("~/Desktop/grist.csv") -> input
#> 
#> ── Column specification ────────────────────────────────────────────────────────
#> cols(
#>   dated = col_character(),
#>   swc_mn = col_double()
#> )

spare <- input

input
#> # A tibble: 22 x 2
#>    dated            swc_mn
#>    <chr>             <dbl>
#>  1 14/04/2017 16:30  0.518
#>  2 14/04/2017 17:00  0.517
#>  3 14/04/2017 17:30  0.517
#>  4 14/04/2017 18:00  0.517
#>  5 14/04/2017 18:30  0.517
#>  6 14/04/2017 19:00  0.517
#>  7 14/04/2017 19:30  0.517
#>  8 14/04/2017 20:00  0.517
#>  9 14/04/2017 20:30  0.517
#> 10 14/04/2017 21:00  0.518
#> # … with 12 more rows
…
