…
#>  $ : language description == "b" ~ "fruit"
#>  $ : language description == "c" ~ "cars"
#>  $ : language description == "d" ~ "cars"
#>  $ : language description == "e" ~ "cars"
#>  $ : language description == "f" ~ "cars"
#>  $ : language description == "g" ~ "cars"
#>  $ : language description == "h" ~ "cars"
#>  $ : language description == "i" ~ "cars"
#>  $ : language description == "j" ~ "cars"
#>  $ : language description == "k" ~ "house"
#>  $ : language description == "l" ~ "house"
#>  $ : language description == "m" ~ "house"
#>  $ : language description == "n" ~ "house"
#>  $ : language description == "o" ~ "house"
#> # A tibble: 78 x 2
#>    description coded
#>    <chr>       <chr>
#>  1 a           fruit
#>  2 b           fruit
#>  3 c           cars 
#>  4 d           cars 
#>  5 e           cars 
#>  6 f           cars 
#>  7 g           cars 
#>  8 h           cars 
#>  9 i           cars 
#> 10 j           cars 
#> # … with 68 more rows
```
