…
# subset month == 9

tic()
input[which(month(input[,1][[1]]) == 9),]
#> # A tibble: 14,117 x 2
#>    datetime             rain
#>    <dttm>              <dbl>
#>  1 1976-09-03 22:45:00  0   
#>  2 1976-09-03 23:00:00  2.54
#>  3 1976-09-03 23:15:00  5.08
#>  4 1976-09-03 23:30:00  0   
#>  5 1976-09-03 23:45:00  0   
#>  6 1976-09-04 00:00:00  0   
#>  7 1976-09-04 00:15:00  0   
#>  8 1976-09-04 00:30:00  0   
#>  9 1976-09-04 00:45:00  0   
#> 10 1976-09-04 01:00:00  0   
#> # … with 14,107 more rows
toc()
#> 0.033 sec elapsed

# map over all months

tic()
seq(1:12) %>% purrr::map( ~ input[which(month(input[,1][[1]]) == .x),])
#> [[1]]
#> # A tibble: 14,880 x 2
#>    datetime             rain
#>    <dttm>              <dbl>
#>  1 1977-01-01 00:00:00     0
#>  2 1977-01-01 00:15:00     0
#>  3 1977-01-01 00:30:00     0
#>  4 1977-01-01 00:45:00     0
#>  5 1977-01-01 01:00:00     0
#>  6 1977-01-01 01:15:00     0
#>  7 1977-01-01 01:30:00     0
#>  8 1977-01-01 01:45:00     0
#>  9 1977-01-01 02:00:00     0
#> 10 1977-01-01 02:15:00     0
#> # … with 14,870 more rows
#> 
#> [[2]]
#> # A tibble: 13,536 x 2
#>    datetime             rain
#>    <dttm>              <dbl>
#>  1 1977-02-01 00:00:00     0
#>  2 1977-02-01 00:15:00     0
#>  3 1977-02-01 00:30:00     0
#>  4 1977-02-01 00:45:00     0
#>  5 1977-02-01 01:00:00     0
#>  6 1977-02-01 01:15:00     0
#>  7 1977-02-01 01:30:00     0
#>  8 1977-02-01 01:45:00     0
#>  9 1977-02-01 02:00:00     0
#> 10 1977-02-01 02:15:00     0
#> # … with 13,526 more rows
#> 
#> [[3]]
#> # A tibble: 14,880 x 2
#>    datetime             rain
#>    <dttm>              <dbl>
#>  1 1977-03-01 00:00:00     0
#>  2 1977-03-01 00:15:00     0
#>  3 1977-03-01 00:30:00     0
#>  4 1977-03-01 00:45:00     0
#>  5 1977-03-01 01:00:00     0
#>  6 1977-03-01 01:15:00     0
#>  7 1977-03-01 01:30:00     0
#>  8 1977-03-01 01:45:00     0
#>  9 1977-03-01 02:00:00     0
#> 10 1977-03-01 02:15:00     0
#> # … with 14,870 more rows
#> 
#> [[4]]
#> # A tibble: 12,738 x 2
#>    datetime             rain
#>    <dttm>              <dbl>
#>  1 1977-04-01 00:00:00     0
#>  2 1977-04-01 00:15:00     0
#>  3 1977-04-01 00:30:00     0
#>  4 1977-04-01 00:45:00     0
#>  5 1977-04-01 01:00:00     0
#>  6 1977-04-01 01:15:00     0
#>  7 1977-04-01 01:30:00     0
#>  8 1977-04-01 01:45:00     0
#>  9 1977-04-01 02:00:00     0
#> 10 1977-04-01 02:15:00     0
#> # … with 12,728 more rows
#> 
#> [[5]]
#> # A tibble: 11,904 x 2
#>    datetime             rain
#>    <dttm>              <dbl>
#>  1 1977-05-01 00:00:00     0
#>  2 1977-05-01 00:15:00     0
#>  3 1977-05-01 00:30:00     0
#>  4 1977-05-01 00:45:00     0
#>  5 1977-05-01 01:00:00     0
#>  6 1977-05-01 01:15:00     0
#>  7 1977-05-01 01:30:00     0
#>  8 1977-05-01 01:45:00     0
#>  9 1977-05-01 02:00:00     0
#> 10 1977-05-01 02:15:00     0
#> # … with 11,894 more rows
#> 
#> [[6]]
#> # A tibble: 11,520 x 2
#>    datetime             rain
#>    <dttm>              <dbl>
#>  1 1977-06-01 00:00:00     0
#>  2 1977-06-01 00:15:00     0
#>  3 1977-06-01 00:30:00     0
#>  4 1977-06-01 00:45:00     0
#>  5 1977-06-01 01:00:00     0
#>  6 1977-06-01 01:15:00     0
#>  7 1977-06-01 01:30:00     0
#>  8 1977-06-01 01:45:00     0
#>  9 1977-06-01 02:00:00     0
#> 10 1977-06-01 02:15:00     0
#> # … with 11,510 more rows
#> 
#> [[7]]
#> # A tibble: 11,904 x 2
#>    datetime             rain
#>    <dttm>              <dbl>
#>  1 1977-07-01 00:00:00     0
#>  2 1977-07-01 00:15:00     0
#>  3 1977-07-01 00:30:00     0
#>  4 1977-07-01 00:45:00     0
#>  5 1977-07-01 01:00:00     0
#>  6 1977-07-01 01:15:00     0
#>  7 1977-07-01 01:30:00     0
#>  8 1977-07-01 01:45:00     0
#>  9 1977-07-01 02:00:00     0
#> 10 1977-07-01 02:15:00     0
#> # … with 11,894 more rows
#> 
#> [[8]]
#> # A tibble: 11,904 x 2
#>    datetime             rain
#>    <dttm>              <dbl>
#>  1 1977-08-01 00:00:00     0
#>  2 1977-08-01 00:15:00     0
#>  3 1977-08-01 00:30:00     0
#>  4 1977-08-01 00:45:00     0
#>  5 1977-08-01 01:00:00     0
#>  6 1977-08-01 01:15:00     0
#>  7 1977-08-01 01:30:00     0
#>  8 1977-08-01 01:45:00     0
#>  9 1977-08-01 02:00:00     0
#> 10 1977-08-01 02:15:00     0
#> # … with 11,894 more rows
#> 
#> [[9]]
#> # A tibble: 14,117 x 2
#>    datetime             rain
#>    <dttm>              <dbl>
#>  1 1976-09-03 22:45:00  0   
#>  2 1976-09-03 23:00:00  2.54
#>  3 1976-09-03 23:15:00  5.08
#>  4 1976-09-03 23:30:00  0   
#>  5 1976-09-03 23:45:00  0   
#>  6 1976-09-04 00:00:00  0   
#>  7 1976-09-04 00:15:00  0   
#>  8 1976-09-04 00:30:00  0   
#>  9 1976-09-04 00:45:00  0   
#> 10 1976-09-04 01:00:00  0   
#> # … with 14,107 more rows
#> 
#> [[10]]
#> # A tibble: 14,880 x 2
#>    datetime             rain
#>    <dttm>              <dbl>
#>  1 1976-10-01 00:00:00     0
#>  2 1976-10-01 00:15:00     0
#>  3 1976-10-01 00:30:00     0
#>  4 1976-10-01 00:45:00     0
#>  5 1976-10-01 01:00:00     0
#>  6 1976-10-01 01:15:00     0
#>  7 1976-10-01 01:30:00     0
#>  8 1976-10-01 01:45:00     0
#>  9 1976-10-01 02:00:00     0
#> 10 1976-10-01 02:15:00     0
#> # … with 14,870 more rows
#> 
#> [[11]]
#> # A tibble: 14,400 x 2
#>    datetime             rain
#>    <dttm>              <dbl>
#>  1 1976-11-01 00:00:00     0
#>  2 1976-11-01 00:15:00     0
#>  3 1976-11-01 00:30:00     0
#>  4 1976-11-01 00:45:00     0
#>  5 1976-11-01 01:00:00     0
#>  6 1976-11-01 01:15:00     0
#>  7 1976-11-01 01:30:00     0
#>  8 1976-11-01 01:45:00     0
#>  9 1976-11-01 02:00:00     0
#> 10 1976-11-01 02:15:00     0
#> # … with 14,390 more rows
#> 
#> [[12]]
#> # A tibble: 14,880 x 2
#>    datetime             rain
#>    <dttm>              <dbl>
#>  1 1976-12-01 00:00:00     0
#>  2 1976-12-01 00:15:00     0
#>  3 1976-12-01 00:30:00     0
#>  4 1976-12-01 00:45:00     0
#>  5 1976-12-01 01:00:00     0
#>  6 1976-12-01 01:15:00     0
#>  7 1976-12-01 01:30:00     0
#>  8 1976-12-01 01:45:00     0
#>  9 1976-12-01 02:00:00     0
#> 10 1976-12-01 02:15:00     0
#> # … with 14,870 more rows
…
