…
#> Year  2511    1981.7762      17.5343        1947            2013
#> AGR   2139  5'137560.88  52'913681.8           0  1.19187778e+09
#> MIN   2139  3'802686.57  46'062895.7           0  1.10344053e+09
#> MAN   2139  11'270966.4  89'674720.3           0  1.86843541e+09
#> PU    2139   683126.976  3'643270.26           0     65'324543.8
#> CON   2139  3'666191.22    34'696912           0      860'638677
#> WRT   2139   6'903431.8  52'500538.4           0  1.15497404e+09
#> TRA   2139  2'998080.02  23'900671.1           0      547'047040
#> FIRE  2139  3'372504.14    19'416463  -2848.8087      387'997506
#> GOV   1702  3'498683.46  24'143501.2           0      485'535400
#> OTH   2139  3'343192.42  21'880087.7           0      402'671182
#> SUM   2139  43'961639.1   358'350627           0  8.06794210e+09
GGDC10S <- qTBL(GGDC10S)
GGDC10S
#> # A tibble: 5,027 × 16
#>    Country Regioncode Region     Variable  Year   AGR   MIN    MAN     PU    CON
#>    <chr>   <chr>      <chr>      <chr>    <dbl> <dbl> <dbl>  <dbl>  <dbl>  <dbl>
#>  1 BWA     SSA        Sub-sahar… VA        1960  NA   NA    NA     NA     NA    
#>  2 BWA     SSA        Sub-sahar… VA        1961  NA   NA    NA     NA     NA    
#>  3 BWA     SSA        Sub-sahar… VA        1962  NA   NA    NA     NA     NA    
#>  4 BWA     SSA        Sub-sahar… VA        1963  NA   NA    NA     NA     NA    
#>  5 BWA     SSA        Sub-sahar… VA        1964  16.3  3.49  0.737  0.104  0.660
#>  6 BWA     SSA        Sub-sahar… VA        1965  15.7  2.50  1.02   0.135  1.35 
#>  7 BWA     SSA        Sub-sahar… VA        1966  17.7  1.97  0.804  0.203  1.35 
#>  8 BWA     SSA        Sub-sahar… VA        1967  19.1  2.30  0.938  0.203  0.897
#>  9 BWA     SSA        Sub-sahar… VA        1968  21.1  1.84  0.750  0.203  1.22 
#> 10 BWA     SSA        Sub-sahar… VA        1969  21.9  5.24  2.14   0.578  3.47 
#> # … with 5,017 more rows, and 6 more variables: WRT <dbl>, TRA <dbl>,
#> #   FIRE <dbl>, GOV <dbl>, OTH <dbl>, SUM <dbl>
…
#>                 PU                CON                WRT                TRA 
#>                "0" "1.34623115930777" "21.8380052682527" "8.97743416914571" 
#>               FIRE                GOV                OTH                SUM 
#> "40.0701608636442"                "0" "3626.84423577048" "37.4822945751317"
GGDC10S %>% fmode(drop = FALSE)
#> # A tibble: 1 × 16
#>   Country Regioncode Region Variable  Year   AGR   MIN   MAN    PU   CON   WRT
#> * <chr>   <chr>      <chr>  <chr>    <dbl> <dbl> <dbl> <dbl> <dbl> <dbl> <dbl>
#> 1 USA     ASI        Asia   EMP       2010  171.     0 4645.     0  1.35  21.8
#> # … with 5 more variables: TRA <dbl>, FIRE <dbl>, GOV <dbl>, OTH <dbl>,
#> #   SUM <dbl>
GGDC10S %>% 
  group_by(Variable, Country) %>%
  select_at(6:16) %>% fmean
#> # A tibble: 85 × 13
#>    Variable Country     AGR     MIN     MAN      PU     CON    WRT    TRA   FIRE
#>    <chr>    <chr>     <dbl>   <dbl>   <dbl>   <dbl>   <dbl>  <dbl>  <dbl>  <dbl>
#>  1 EMP      ARG       1420.   52.1   1932.   102.     742.  1.98e3 6.49e2  628. 
#>  2 EMP      BOL        964.   56.0    235.     5.35   123.  2.82e2 1.15e2   44.6
#>  3 EMP      BRA      17191.  206.    6991.   365.    3525.  8.51e3 2.05e3 4414. 
#>  4 EMP      BWA        188.   10.5     18.1    3.09    25.3 3.63e1 8.36e0   15.3
#>  5 EMP      CHL        702.  101.     625.    29.4    296.  6.95e2 2.58e2  272. 
#>  6 EMP      CHN     287744. 7050.   67144.  1606.   20852.  2.89e4 1.39e4 4929. 
#>  7 EMP      COL       3091.  145.    1175.    33.9    524.  2.07e3 4.70e2  649. 
#>  8 EMP      CRI        231.    1.70   136.    14.3     57.6 1.57e2 4.24e1   54.9
#>  9 EMP      DEW       2490.  407.    8473.   226.    2093.  4.44e3 1.48e3 1689. 
#> 10 EMP      DNK        236.    8.03   507.    13.8    171.  4.55e2 1.61e2  181. 
#> # … with 75 more rows, and 3 more variables: GOV <dbl>, OTH <dbl>, SUM <dbl>
GGDC10S %>% group_by(Variable, Country) %>% attr("groups")
#> # A tibble: 85 × 3
#>    Variable Country       .rows
#>    <chr>    <chr>   <list<int>>
#>  1 EMP      ARG            [62]
#>  2 EMP      BOL            [61]
#>  3 EMP      BRA            [62]
#>  4 EMP      BWA            [52]
#>  5 EMP      CHL            [63]
#>  6 EMP      CHN            [62]
#>  7 EMP      COL            [61]
#>  8 EMP      CRI            [62]
#>  9 EMP      DEW            [61]
#> 10 EMP      DNK            [64]
#> # … with 75 more rows
…
#>  $ group.sizes: int [1:85] 62 61 62 52 63 62 61 62 61 64 ...
#>  $ groups     :List of 2
#>   ..$ Variable: chr [1:85] "EMP" "EMP" "EMP" "EMP" ...
#>   .. ..- attr(*, "label")= chr "Variable"
#>   .. ..- attr(*, "format.stata")= chr "%9s"
#>   ..$ Country : chr [1:85] "ARG" "BOL" "BRA" "BWA" ...
#>   .. ..- attr(*, "label")= chr "Country"
#>   .. ..- attr(*, "format.stata")= chr "%9s"
#>  $ group.vars : chr [1:2] "Variable" "Country"
#>  $ ordered    : logi [1:2] TRUE TRUE
#>  $ order      : NULL
#>  $ call       : language GRP.grouped_df(X = .)
#>  - attr(*, "class")= chr "GRP"
GGDC10S %>% fgroup_by(Variable, Country) %>% get_vars(6:16) %>% fmedian
#> # A tibble: 85 × 13
#>    Variable Country     AGR     MIN     MAN      PU     CON    WRT    TRA   FIRE
#>    <chr>    <chr>     <dbl>   <dbl>   <dbl>   <dbl>   <dbl>  <dbl>  <dbl>  <dbl>
#>  1 EMP      ARG       1325.   47.4   1988.   105.     782.  1.85e3 5.80e2  464. 
#>  2 EMP      BOL        943.   53.5    167.     4.46    66.0 1.32e2 9.70e1   15.3
#>  3 EMP      BRA      17481.  225.    7208.   376.    4055.  6.45e3 1.58e3 4355. 
#>  4 EMP      BWA        175.   12.2     13.1    3.71    19.0 2.11e1 6.75e0   10.4
#>  5 EMP      CHL        690.   93.9    607.    25.8    230.  4.84e2 2.05e2  106. 
#>  6 EMP      CHN     293915  8150.   61761.  1139.   10578.  1.70e4 9.56e3 4328. 
#>  7 EMP      COL       3006.   84.0   1033.    37.1    419.  1.55e3 3.91e2  655. 
#>  8 EMP      CRI        216.    1.49   114.     7.92    55.0 8.98e1 2.55e1   19.6
#>  9 EMP      DEW       2178   320.    8459.   247     2095.  4.45e3 1.53e3 1656  
#> 10 EMP      DNK        187.    3.75   508.    13.6    165.  4.61e2 1.61e2  169. 
#> # … with 75 more rows, and 3 more variables: GOV <dbl>, OTH <dbl>, SUM <dbl>
…
# This efficiently scales and centers (i.e. standardizes) the data
GGDC10S %>%
  fgroup_by(Variable, Country) %>%
  fselect(Country, Variable, AGR:SUM) %>% fscale
#> # A tibble: 5,027 × 13
#>    Country Variable    AGR    MIN    MAN     PU    CON    WRT    TRA   FIRE
#>  * <chr>   <chr>     <dbl>  <dbl>  <dbl>  <dbl>  <dbl>  <dbl>  <dbl>  <dbl>
#>  1 BWA     VA       NA     NA     NA     NA     NA     NA     NA     NA    
#>  2 BWA     VA       NA     NA     NA     NA     NA     NA     NA     NA    
#>  3 BWA     VA       NA     NA     NA     NA     NA     NA     NA     NA    
#>  4 BWA     VA       NA     NA     NA     NA     NA     NA     NA     NA    
#>  5 BWA     VA       -0.738 -0.717 -0.668 -0.805 -0.692 -0.603 -0.589 -0.635
#>  6 BWA     VA       -0.739 -0.717 -0.668 -0.805 -0.692 -0.603 -0.589 -0.635
#>  7 BWA     VA       -0.736 -0.717 -0.668 -0.805 -0.692 -0.603 -0.589 -0.635
#>  8 BWA     VA       -0.734 -0.717 -0.668 -0.805 -0.692 -0.604 -0.589 -0.635
#>  9 BWA     VA       -0.730 -0.717 -0.668 -0.805 -0.692 -0.604 -0.588 -0.635
#> 10 BWA     VA       -0.729 -0.716 -0.667 -0.803 -0.690 -0.603 -0.588 -0.635
#> # … with 5,017 more rows, and 3 more variables: GOV <dbl>, OTH <dbl>, SUM <dbl>
…
